-- Merging decision tree log ---
manifest
ADDED from C:\Users\Alexandre\Documents\GitProjects\wifiTickets\CODE\app\src\main\AndroidManifest.xml:2:1-27:12
INJECTED from C:\Users\Alexandre\Documents\GitProjects\wifiTickets\CODE\app\src\main\AndroidManifest.xml:2:1-27:12
INJECTED from C:\Users\Alexandre\Documents\GitProjects\wifiTickets\CODE\app\src\main\AndroidManifest.xml:2:1-27:12
INJECTED from C:\Users\Alexandre\Documents\GitProjects\wifiTickets\CODE\app\src\main\AndroidManifest.xml:2:1-27:12
MERGED from [com.android.support:appcompat-v7:27.1.1] C:\Users\Alexandre\.gradle\caches\transforms-1\files-1.1\appcompat-v7-27.1.1.aar\d76550f3ac891e664a125cbf8141c8bf\AndroidManifest.xml:17:1-22:12
MERGED from [com.android.support.constraint:constraint-layout:1.1.2] C:\Users\Alexandre\.gradle\caches\transforms-1\files-1.1\constraint-layout-1.1.2.aar\845b468216c56d142c2c14f2cb150cc9\AndroidManifest.xml:2:1-11:12
MERGED from [com.android.support:support-fragment:27.1.1] C:\Users\Alexandre\.gradle\caches\transforms-1\files-1.1\support-fragment-27.1.1.aar\cda90a97c834971dc3fa65331cdbaea8\AndroidManifest.xml:17:1-22:12
MERGED from [com.android.support:animated-vector-drawable:27.1.1] C:\Users\Alexandre\.gradle\caches\transforms-1\files-1.1\animated-vector-drawable-27.1.1.aar\0e91208b9ac35e12ce5669baabb75c9c\AndroidManifest.xml:17:1-22:12
MERGED from [com.android.support:support-core-ui:27.1.1] C:\Users\Alexandre\.gradle\caches\transforms-1\files-1.1\support-core-ui-27.1.1.aar\41fca619d6049f1f72f9f5ba2dd6ba06\AndroidManifest.xml:17:1-22:12
MERGED from [com.android.support:support-core-utils:27.1.1] C:\Users\Alexandre\.gradle\caches\transforms-1\files-1.1\support-core-utils-27.1.1.aar\c1361d8d6882e87cd7112fd7d7ee1cd6\AndroidManifest.xml:17:1-22:12
MERGED from [com.android.support:support-vector-drawable:27.1.1] C:\Users\Alexandre\.gradle\caches\transforms-1\files-1.1\support-vector-drawable-27.1.1.aar\bb08a2f44cdb50013e79b2abd57b88a2\AndroidManifest.xml:17:1-22:12
MERGED from [com.android.support:support-compat:27.1.1] C:\Users\Alexandre\.gradle\caches\transforms-1\files-1.1\support-compat-27.1.1.aar\4a7b3e5188ec445683fd6e12768ad1d1\AndroidManifest.xml:17:1-22:12
MERGED from [android.arch.lifecycle:livedata-core:1.1.0] C:\Users\Alexandre\.gradle\caches\transforms-1\files-1.1\livedata-core-1.1.0.aar\385834d1a660a8a9a48c67b551d89402\AndroidManifest.xml:17:1-22:12
MERGED from [android.arch.lifecycle:viewmodel:1.1.0] C:\Users\Alexandre\.gradle\caches\transforms-1\files-1.1\viewmodel-1.1.0.aar\3c3d4857c91cb95a0db8a54d8329e65c\AndroidManifest.xml:17:1-22:12
MERGED from [android.arch.lifecycle:runtime:1.1.0] C:\Users\Alexandre\.gradle\caches\transforms-1\files-1.1\runtime-1.1.0.aar\d26d62742c22ff1c584f84ecfa44f20d\AndroidManifest.xml:17:1-22:12
MERGED from [android.arch.core:runtime:1.1.0] C:\Users\Alexandre\.gradle\caches\transforms-1\files-1.1\runtime-1.1.0.aar\0869dbf761113c718af5dff4186d3f9e\AndroidManifest.xml:17:1-22:12
INJECTED from C:\Users\Alexandre\Documents\GitProjects\wifiTickets\CODE\app\src\main\AndroidManifest.xml:2:1-27:12
INJECTED from C:\Users\Alexandre\Documents\GitProjects\wifiTickets\CODE\app\src\main\AndroidManifest.xml:2:1-27:12
INJECTED from C:\Users\Alexandre\Documents\GitProjects\wifiTickets\CODE\app\src\main\AndroidManifest.xml:2:1-27:12
	package
		ADDED from C:\Users\Alexandre\Documents\GitProjects\wifiTickets\CODE\app\src\main\AndroidManifest.xml:3:5-38
		INJECTED from C:\Users\Alexandre\Documents\GitProjects\wifiTickets\CODE\app\src\main\AndroidManifest.xml
		INJECTED from C:\Users\Alexandre\Documents\GitProjects\wifiTickets\CODE\app\src\main\AndroidManifest.xml
	android:versionName
		INJECTED from C:\Users\Alexandre\Documents\GitProjects\wifiTickets\CODE\app\src\main\AndroidManifest.xml
		ADDED from C:\Users\Alexandre\Documents\GitProjects\wifiTickets\CODE\app\src\main\AndroidManifest.xml:2:1-27:12
		INJECTED from C:\Users\Alexandre\Documents\GitProjects\wifiTickets\CODE\app\src\main\AndroidManifest.xml
	android:versionCode
		INJECTED from C:\Users\Alexandre\Documents\GitProjects\wifiTickets\CODE\app\src\main\AndroidManifest.xml
		ADDED from C:\Users\Alexandre\Documents\GitProjects\wifiTickets\CODE\app\src\main\AndroidManifest.xml:2:1-27:12
		INJECTED from C:\Users\Alexandre\Documents\GitProjects\wifiTickets\CODE\app\src\main\AndroidManifest.xml
	xmlns:android
		ADDED from C:\Users\Alexandre\Documents\GitProjects\wifiTickets\CODE\app\src\main\AndroidManifest.xml:2:11-69
uses-permission#android.permission.INTERNET
ADDED from C:\Users\Alexandre\Documents\GitProjects\wifiTickets\CODE\app\src\main\AndroidManifest.xml:6:5-67
	android:name
		ADDED from C:\Users\Alexandre\Documents\GitProjects\wifiTickets\CODE\app\src\main\AndroidManifest.xml:6:22-64
application
ADDED from C:\Users\Alexandre\Documents\GitProjects\wifiTickets\CODE\app\src\main\AndroidManifest.xml:8:5-25:19
MERGED from [com.android.support.constraint:constraint-layout:1.1.2] C:\Users\Alexandre\.gradle\caches\transforms-1\files-1.1\constraint-layout-1.1.2.aar\845b468216c56d142c2c14f2cb150cc9\AndroidManifest.xml:9:5-20
MERGED from [com.android.support.constraint:constraint-layout:1.1.2] C:\Users\Alexandre\.gradle\caches\transforms-1\files-1.1\constraint-layout-1.1.2.aar\845b468216c56d142c2c14f2cb150cc9\AndroidManifest.xml:9:5-20
	android:supportsRtl
		ADDED from C:\Users\Alexandre\Documents\GitProjects\wifiTickets\CODE\app\src\main\AndroidManifest.xml:13:9-35
	android:label
		ADDED from C:\Users\Alexandre\Documents\GitProjects\wifiTickets\CODE\app\src\main\AndroidManifest.xml:11:9-41
	android:roundIcon
		ADDED from C:\Users\Alexandre\Documents\GitProjects\wifiTickets\CODE\app\src\main\AndroidManifest.xml:12:9-54
	android:icon
		ADDED from C:\Users\Alexandre\Documents\GitProjects\wifiTickets\CODE\app\src\main\AndroidManifest.xml:10:9-43
	android:allowBackup
		ADDED from C:\Users\Alexandre\Documents\GitProjects\wifiTickets\CODE\app\src\main\AndroidManifest.xml:9:9-35
	android:theme
		ADDED from C:\Users\Alexandre\Documents\GitProjects\wifiTickets\CODE\app\src\main\AndroidManifest.xml:14:9-40
activity#upct.WifiTicketsControl.MainActivity
ADDED from C:\Users\Alexandre\Documents\GitProjects\wifiTickets\CODE\app\src\main\AndroidManifest.xml:16:9-24:20
	android:screenOrientation
		ADDED from C:\Users\Alexandre\Documents\GitProjects\wifiTickets\CODE\app\src\main\AndroidManifest.xml:16:48-90
	android:name
		ADDED from C:\Users\Alexandre\Documents\GitProjects\wifiTickets\CODE\app\src\main\AndroidManifest.xml:16:19-47
intent-filter#action:name:android.intent.action.MAIN+category:name:android.intent.category.LAUNCHER
ADDED from C:\Users\Alexandre\Documents\GitProjects\wifiTickets\CODE\app\src\main\AndroidManifest.xml:19:13-22:29
action#android.intent.action.MAIN
ADDED from C:\Users\Alexandre\Documents\GitProjects\wifiTickets\CODE\app\src\main\AndroidManifest.xml:20:17-69
	android:name
		ADDED from C:\Users\Alexandre\Documents\GitProjects\wifiTickets\CODE\app\src\main\AndroidManifest.xml:20:25-66
category#android.intent.category.LAUNCHER
ADDED from C:\Users\Alexandre\Documents\GitProjects\wifiTickets\CODE\app\src\main\AndroidManifest.xml:21:17-77
	android:name
		ADDED from C:\Users\Alexandre\Documents\GitProjects\wifiTickets\CODE\app\src\main\AndroidManifest.xml:21:27-74
uses-sdk
INJECTED from C:\Users\Alexandre\Documents\GitProjects\wifiTickets\CODE\app\src\main\AndroidManifest.xml reason: use-sdk injection requested
INJECTED from C:\Users\Alexandre\Documents\GitProjects\wifiTickets\CODE\app\src\main\AndroidManifest.xml
INJECTED from C:\Users\Alexandre\Documents\GitProjects\wifiTickets\CODE\app\src\main\AndroidManifest.xml
MERGED from [com.android.support:appcompat-v7:27.1.1] C:\Users\Alexandre\.gradle\caches\transforms-1\files-1.1\appcompat-v7-27.1.1.aar\d76550f3ac891e664a125cbf8141c8bf\AndroidManifest.xml:20:5-44
MERGED from [com.android.support:appcompat-v7:27.1.1] C:\Users\Alexandre\.gradle\caches\transforms-1\files-1.1\appcompat-v7-27.1.1.aar\d76550f3ac891e664a125cbf8141c8bf\AndroidManifest.xml:20:5-44
MERGED from [com.android.support.constraint:constraint-layout:1.1.2] C:\Users\Alexandre\.gradle\caches\transforms-1\files-1.1\constraint-layout-1.1.2.aar\845b468216c56d142c2c14f2cb150cc9\AndroidManifest.xml:5:5-7:41
MERGED from [com.android.support.constraint:constraint-layout:1.1.2] C:\Users\Alexandre\.gradle\caches\transforms-1\files-1.1\constraint-layout-1.1.2.aar\845b468216c56d142c2c14f2cb150cc9\AndroidManifest.xml:5:5-7:41
MERGED from [com.android.support:support-fragment:27.1.1] C:\Users\Alexandre\.gradle\caches\transforms-1\files-1.1\support-fragment-27.1.1.aar\cda90a97c834971dc3fa65331cdbaea8\AndroidManifest.xml:20:5-44
MERGED from [com.android.support:support-fragment:27.1.1] C:\Users\Alexandre\.gradle\caches\transforms-1\files-1.1\support-fragment-27.1.1.aar\cda90a97c834971dc3fa65331cdbaea8\AndroidManifest.xml:20:5-44
MERGED from [com.android.support:animated-vector-drawable:27.1.1] C:\Users\Alexandre\.gradle\caches\transforms-1\files-1.1\animated-vector-drawable-27.1.1.aar\0e91208b9ac35e12ce5669baabb75c9c\AndroidManifest.xml:20:5-44
MERGED from [com.android.support:animated-vector-drawable:27.1.1] C:\Users\Alexandre\.gradle\caches\transforms-1\files-1.1\animated-vector-drawable-27.1.1.aar\0e91208b9ac35e12ce5669baabb75c9c\AndroidManifest.xml:20:5-44
MERGED from [com.android.support:support-core-ui:27.1.1] C:\Users\Alexandre\.gradle\caches\transforms-1\files-1.1\support-core-ui-27.1.1.aar\41fca619d6049f1f72f9f5ba2dd6ba06\AndroidManifest.xml:20:5-44
MERGED from [com.android.support:support-core-ui:27.1.1] C:\Users\Alexandre\.gradle\caches\transforms-1\files-1.1\support-core-ui-27.1.1.aar\41fca619d6049f1f72f9f5ba2dd6ba06\AndroidManifest.xml:20:5-44
MERGED from [com.android.support:support-core-utils:27.1.1] C:\Users\Alexandre\.gradle\caches\transforms-1\files-1.1\support-core-utils-27.1.1.aar\c1361d8d6882e87cd7112fd7d7ee1cd6\AndroidManifest.xml:20:5-44
MERGED from [com.android.support:support-core-utils:27.1.1] C:\Users\Alexandre\.gradle\caches\transforms-1\files-1.1\support-core-utils-27.1.1.aar\c1361d8d6882e87cd7112fd7d7ee1cd6\AndroidManifest.xml:20:5-44
MERGED from [com.android.support:support-vector-drawable:27.1.1] C:\Users\Alexandre\.gradle\caches\transforms-1\files-1.1\support-vector-drawable-27.1.1.aar\bb08a2f44cdb50013e79b2abd57b88a2\AndroidManifest.xml:20:5-44
MERGED from [com.android.support:support-vector-drawable:27.1.1] C:\Users\Alexandre\.gradle\caches\transforms-1\files-1.1\support-vector-drawable-27.1.1.aar\bb08a2f44cdb50013e79b2abd57b88a2\AndroidManifest.xml:20:5-44
MERGED from [com.android.support:support-compat:27.1.1] C:\Users\Alexandre\.gradle\caches\transforms-1\files-1.1\support-compat-27.1.1.aar\4a7b3e5188ec445683fd6e12768ad1d1\AndroidManifest.xml:20:5-44
MERGED from [com.android.support:support-compat:27.1.1] C:\Users\Alexandre\.gradle\caches\transforms-1\files-1.1\support-compat-27.1.1.aar\4a7b3e5188ec445683fd6e12768ad1d1\AndroidManifest.xml:20:5-44
MERGED from [android.arch.lifecycle:livedata-core:1.1.0] C:\Users\Alexandre\.gradle\caches\transforms-1\files-1.1\livedata-core-1.1.0.aar\385834d1a660a8a9a48c67b551d89402\AndroidManifest.xml:20:5-44
MERGED from [android.arch.lifecycle:livedata-core:1.1.0] C:\Users\Alexandre\.gradle\caches\transforms-1\files-1.1\livedata-core-1.1.0.aar\385834d1a660a8a9a48c67b551d89402\AndroidManifest.xml:20:5-44
MERGED from [android.arch.lifecycle:viewmodel:1.1.0] C:\Users\Alexandre\.gradle\caches\transforms-1\files-1.1\viewmodel-1.1.0.aar\3c3d4857c91cb95a0db8a54d8329e65c\AndroidManifest.xml:20:5-44
MERGED from [android.arch.lifecycle:viewmodel:1.1.0] C:\Users\Alexandre\.gradle\caches\transforms-1\files-1.1\viewmodel-1.1.0.aar\3c3d4857c91cb95a0db8a54d8329e65c\AndroidManifest.xml:20:5-44
MERGED from [android.arch.lifecycle:runtime:1.1.0] C:\Users\Alexandre\.gradle\caches\transforms-1\files-1.1\runtime-1.1.0.aar\d26d62742c22ff1c584f84ecfa44f20d\AndroidManifest.xml:20:5-44
MERGED from [android.arch.lifecycle:runtime:1.1.0] C:\Users\Alexandre\.gradle\caches\transforms-1\files-1.1\runtime-1.1.0.aar\d26d62742c22ff1c584f84ecfa44f20d\AndroidManifest.xml:20:5-44
MERGED from [android.arch.core:runtime:1.1.0] C:\Users\Alexandre\.gradle\caches\transforms-1\files-1.1\runtime-1.1.0.aar\0869dbf761113c718af5dff4186d3f9e\AndroidManifest.xml:20:5-44
MERGED from [android.arch.core:runtime:1.1.0] C:\Users\Alexandre\.gradle\caches\transforms-1\files-1.1\runtime-1.1.0.aar\0869dbf761113c718af5dff4186d3f9e\AndroidManifest.xml:20:5-44
INJECTED from C:\Users\Alexandre\Documents\GitProjects\wifiTickets\CODE\app\src\main\AndroidManifest.xml
INJECTED from C:\Users\Alexandre\Documents\GitProjects\wifiTickets\CODE\app\src\main\AndroidManifest.xml
	android:targetSdkVersion
		INJECTED from C:\Users\Alexandre\Documents\GitProjects\wifiTickets\CODE\app\src\main\AndroidManifest.xml
		ADDED from C:\Users\Alexandre\Documents\GitProjects\wifiTickets\CODE\app\src\main\AndroidManifest.xml
		INJECTED from C:\Users\Alexandre\Documents\GitProjects\wifiTickets\CODE\app\src\main\AndroidManifest.xml
	android:minSdkVersion
		INJECTED from C:\Users\Alexandre\Documents\GitProjects\wifiTickets\CODE\app\src\main\AndroidManifest.xml
		ADDED from C:\Users\Alexandre\Documents\GitProjects\wifiTickets\CODE\app\src\main\AndroidManifest.xml
		INJECTED from C:\Users\Alexandre\Documents\GitProjects\wifiTickets\CODE\app\src\main\AndroidManifest.xml
